<svg width="609" height="687" viewBox="0 0 609 687" fill="none" xmlns="http://www.w3.org/2000/svg">
<path d="M131.113 542.105C130.319 545.08 128.336 549.841 123.377 554.8C120.005 558.172 115.046 561.147 111.674 562.734C110.484 563.329 109.889 563.329 109.889 563.924C109.69 564.321 110.484 564.916 111.079 565.709C130.716 586.536 167.412 597.644 191.611 597.644C251.316 597.644 291.185 555.99 291.185 501.244C291.185 472.085 282.854 451.258 260.44 436.977C252.704 432.018 241.001 429.637 233.464 429.637C230.489 429.637 227.513 430.233 224.736 431.224C214.62 434.795 207.479 444.316 207.479 455.82C207.479 470.102 219.182 481.805 233.464 481.805C245.96 481.805 256.87 472.482 258.853 460.779C267.383 468.713 268.573 491.326 268.176 498.863C265.796 540.121 233.464 569.081 189.826 567.494C169.594 566.701 147.378 554.403 134.683 542.502C134.683 542.502 132.501 540.32 131.906 540.32C131.509 539.725 131.509 540.915 131.113 542.105Z" fill="#DCDDDE"/>
<path d="M131.113 542.105C130.319 545.08 128.336 549.841 123.377 554.8C120.005 558.172 115.046 561.147 111.674 562.734C110.484 563.329 109.889 563.329 109.889 563.924C109.69 564.321 110.484 564.916 111.079 565.709C130.716 586.536 167.412 597.644 191.611 597.644C251.316 597.644 291.185 555.99 291.185 501.244C291.185 472.085 282.854 451.258 260.44 436.977C252.704 432.018 241.001 429.637 233.464 429.637C230.489 429.637 227.513 430.233 224.736 431.224C214.62 434.795 207.479 444.316 207.479 455.82C207.479 470.102 219.182 481.805 233.464 481.805C245.96 481.805 256.87 472.482 258.853 460.779C267.383 468.713 268.573 491.326 268.176 498.863C265.796 540.121 233.464 569.081 189.826 567.494C169.594 566.701 147.378 554.403 134.683 542.502C134.683 542.502 132.501 540.32 131.906 540.32C131.509 539.725 131.509 540.915 131.113 542.105Z" fill="#DCDDDE"/>
<path d="M403.454 329.27C402.066 328.477 399.884 327.287 396.71 325.303C396.512 325.303 398.694 325.502 398.496 325.303C396.115 329.27 391.751 331.849 386.991 331.849C379.453 331.849 373.304 325.7 373.304 318.163C373.304 310.625 379.453 304.476 386.991 304.476C389.173 304.476 391.751 305.468 393.735 306.46L398.694 285.037C373.503 260.838 349.502 227.316 361.403 127.543C361.601 126.155 361.403 125.361 361.8 125.163C362.197 124.965 363.387 125.56 365.172 126.353C369.932 128.535 378.858 133.494 384.611 143.808C384.611 143.808 384.611 143.808 384.611 143.61C402.264 117.427 436.381 100.17 470.3 99.7734C470.697 99.7734 471.094 99.7734 471.49 99.7734C518.104 99.7734 555.395 130.32 566.502 173.363C566.701 174.157 566.899 174.95 567.097 175.743C567.494 177.529 567.891 179.314 568.288 181.297C574.238 209.266 584.156 231.68 606.173 241.399C607.364 241.796 608.554 242.391 608.752 242.589C609.149 242.986 608.95 243.779 608.95 245.168V274.921C608.95 274.921 608.95 275.516 608.95 275.714C608.752 275.913 608.554 275.913 607.959 276.111C604.388 277.301 588.123 283.252 578.007 307.253C569.478 327.684 569.279 356.445 558.568 377.867C546.27 402.463 520.286 416.348 490.731 416.745C451.655 416.745 422.893 388.38 423.29 350.296C423.488 337.601 432.414 310.03 463.358 307.451C472.284 306.658 479.821 309.435 486.764 315.386C491.524 319.353 494.698 325.898 494.698 332.642C494.698 344.544 484.978 354.263 473.077 354.263C461.176 354.263 451.456 344.544 451.456 332.642C451.456 331.452 451.456 330.262 451.655 329.27C451.655 329.27 443.324 331.254 441.935 345.536C440.15 362.396 448.878 380.446 464.746 388.975C474.664 394.331 488.747 395.521 499.26 392.347C522.666 385.405 535.559 366.363 535.559 345.139C535.559 329.667 532.782 319.551 522.666 312.609C521.674 311.815 521.079 311.617 520.881 311.418C520.682 310.823 521.079 310.03 521.277 309.038C522.666 303.881 526.038 291.385 527.625 285.632C527.823 284.839 528.22 283.252 528.815 283.054C529.41 282.855 530.6 283.45 531.592 283.847C535.361 285.434 538.733 286.029 542.105 286.029C556.981 286.029 568.883 273.929 568.883 259.251C568.883 244.374 556.981 232.275 542.105 232.275C536.352 232.275 531.592 234.258 528.418 236.043C526.831 237.035 526.435 237.432 525.84 237.234C525.245 237.035 524.848 235.448 524.649 234.457C523.063 228.704 519.691 217.2 518.302 212.638C517.905 211.447 517.707 211.051 517.905 210.654C518.104 210.257 518.5 210.059 518.897 209.861C522.666 207.282 533.377 197.761 533.377 175.743C533.377 149.759 509.971 126.353 473.672 125.956C437.175 125.56 414.166 147.775 410.595 191.81C408.81 212.241 407.62 242.788 407.62 272.342C407.62 280.475 406.628 317.964 406.43 328.279C406.43 329.667 406.43 330.461 406.231 330.659C406.033 330.659 404.645 330.064 403.454 329.27Z" fill="#DCDDDE"/>
<path d="M403.454 329.27C402.066 328.477 399.884 327.287 396.71 325.303C396.512 325.303 398.694 325.502 398.496 325.303C396.115 329.27 391.751 331.849 386.991 331.849C379.453 331.849 373.304 325.7 373.304 318.163C373.304 310.625 379.453 304.476 386.991 304.476C389.173 304.476 391.751 305.468 393.735 306.46L398.694 285.037C373.503 260.838 349.502 227.316 361.403 127.543C361.601 126.155 361.403 125.361 361.8 125.163C362.197 124.965 363.387 125.56 365.172 126.353C369.932 128.535 378.858 133.494 384.611 143.808C384.611 143.808 384.611 143.808 384.611 143.61C402.264 117.427 436.381 100.17 470.3 99.7734C470.697 99.7734 471.094 99.7734 471.49 99.7734C518.104 99.7734 555.395 130.32 566.502 173.363C566.701 174.157 566.899 174.95 567.097 175.743C567.494 177.529 567.891 179.314 568.288 181.297C574.238 209.266 584.156 231.68 606.173 241.399C607.364 241.796 608.554 242.391 608.752 242.589C609.149 242.986 608.95 243.779 608.95 245.168V274.921C608.95 274.921 608.95 275.516 608.95 275.714C608.752 275.913 608.554 275.913 607.959 276.111C604.388 277.301 588.123 283.252 578.007 307.253C569.478 327.684 569.279 356.445 558.568 377.867C546.27 402.463 520.286 416.348 490.731 416.745C451.655 416.745 422.893 388.38 423.29 350.296C423.488 337.601 432.414 310.03 463.358 307.451C472.284 306.658 479.821 309.435 486.764 315.386C491.524 319.353 494.698 325.898 494.698 332.642C494.698 344.544 484.978 354.263 473.077 354.263C461.176 354.263 451.456 344.544 451.456 332.642C451.456 331.452 451.456 330.262 451.655 329.27C451.655 329.27 443.324 331.254 441.935 345.536C440.15 362.396 448.878 380.446 464.746 388.975C474.664 394.331 488.747 395.521 499.26 392.347C522.666 385.405 535.559 366.363 535.559 345.139C535.559 329.667 532.782 319.551 522.666 312.609C521.674 311.815 521.079 311.617 520.881 311.418C520.682 310.823 521.079 310.03 521.277 309.038C522.666 303.881 526.038 291.385 527.625 285.632C527.823 284.839 528.22 283.252 528.815 283.054C529.41 282.855 530.6 283.45 531.592 283.847C535.361 285.434 538.733 286.029 542.105 286.029C556.981 286.029 568.883 273.929 568.883 259.251C568.883 244.374 556.981 232.275 542.105 232.275C536.352 232.275 531.592 234.258 528.418 236.043C526.831 237.035 526.435 237.432 525.84 237.234C525.245 237.035 524.848 235.448 524.649 234.457C523.063 228.704 519.691 217.2 518.302 212.638C517.905 211.447 517.707 211.051 517.905 210.654C518.104 210.257 518.5 210.059 518.897 209.861C522.666 207.282 533.377 197.761 533.377 175.743C533.377 149.759 509.971 126.353 473.672 125.956C437.175 125.56 414.166 147.775 410.595 191.81C408.81 212.241 407.62 242.788 407.62 272.342C407.62 280.475 406.628 317.964 406.43 328.279C406.43 329.667 406.43 330.461 406.231 330.659C406.033 330.659 404.645 330.064 403.454 329.27Z" fill="#DCDDDE"/>
<path d="M323.319 153.924C322.129 155.312 321.137 155.907 320.939 156.502C320.74 157.097 321.335 158.684 321.534 159.874C327.088 183.479 356.246 318.162 306.657 385.206C278.689 349.502 272.937 266.986 282.854 224.736C293.566 179.908 278.094 151.742 265.598 141.427C264.804 140.832 263.217 139.444 262.821 139.444C262.424 139.444 262.622 141.229 262.622 142.221C266.391 188.834 265.399 252.109 225.53 287.218C225.133 287.417 224.538 288.012 224.538 288.21C224.538 288.408 224.538 288.805 224.935 289.797L226.323 294.756C226.522 295.351 226.72 295.946 226.918 295.946C227.117 296.144 228.108 296.144 228.505 296.144C240.208 296.739 249.729 306.459 249.729 318.36C249.729 330.658 239.811 340.576 227.513 340.576C223.348 340.576 219.182 339.386 215.81 337.204C215.414 336.807 215.017 336.807 214.819 336.609C214.62 336.609 214.025 337.006 213.827 337.006L208.471 340.179C207.876 340.576 207.48 340.774 207.083 341.171C206.884 341.568 206.686 342.956 206.488 343.551C202.322 362.99 169.792 485.375 24.001 525.046C19.6372 526.435 11.5046 528.022 11.5046 529.41C11.5046 530.997 18.6454 536.749 24.1994 539.923C37.2908 546.27 57.3247 551.824 81.524 544.485C81.524 544.485 79.9372 549.246 79.7388 555.196C79.7388 557.775 79.5405 562.932 81.1273 563.13C82.5158 563.329 82.9125 561.544 87.2763 559.758C88.2681 559.362 89.4582 558.965 90.8467 558.767C97.9875 557.577 118.22 552.221 122.187 534.171C126.154 516.12 127.146 505.607 132.898 500.053C139.84 493.508 152.337 500.45 150.75 509.773C149.758 516.319 142.419 525.245 138.65 529.212C137.857 530.203 137.46 530.402 137.262 530.997C137.262 531.592 138.055 532.187 139.047 533.179C144.799 539.13 156.502 550.436 178.916 555.99C178.916 555.99 182.883 556.981 183.479 556.783C184.272 556.585 184.074 554.8 183.875 552.816C182.487 526.435 183.677 480.218 194.785 451.258C206.686 420.513 225.331 392.545 250.523 392.545C271.152 392.545 289.599 412.976 299.913 438.167C300.508 439.555 301.103 441.142 301.897 443.324C304.078 449.671 304.475 454.233 306.062 454.233C307.649 454.233 308.244 449.671 310.228 443.522C310.823 442.134 311.219 440.745 311.814 439.357C321.93 413.571 340.774 392.743 361.601 392.545C387.388 392.545 411.389 420.315 418.728 453.043C426.662 489.144 419.72 509.178 423.885 543.493C428.05 577.809 438.167 589.512 443.721 593.28C445.109 594.272 446.696 595.066 447.093 594.867C447.489 594.669 447.489 593.479 447.489 592.289C447.886 586.735 450.266 574.833 461.374 568.684C470.895 563.527 480.416 565.511 483.987 566.503C484.582 566.701 485.177 566.899 485.375 566.701C485.573 566.503 485.573 565.907 485.573 565.907C487.557 554.8 483.987 544.088 477.639 536.154C471.094 527.823 459.986 520.087 458.994 509.971C457.804 497.872 471.887 492.516 479.821 499.657C485.772 505.012 485.97 515.327 489.937 533.377C493.904 551.427 514.335 557.378 521.476 558.568C522.864 558.767 524.054 559.163 525.046 559.56C530.203 561.742 529.807 563.13 530.997 562.932C532.584 562.734 532.385 557.775 532.385 554.998C532.187 549.047 530.798 544.287 530.798 544.287C554.799 551.824 575.032 546.27 588.123 539.923C594.272 536.749 600.818 530.799 600.619 529.41C600.619 527.823 592.487 526.236 588.123 525.046C443.125 485.574 410.198 364.18 405.636 343.75C405.24 342.163 405.24 341.369 405.041 340.973C404.843 340.576 404.645 340.576 404.049 340.179L398.694 337.006C398.496 336.807 397.9 336.41 397.702 336.41C397.504 336.41 397.305 336.609 396.71 337.006C393.338 338.989 389.371 340.179 385.206 340.179C372.908 340.179 362.99 330.261 362.99 317.963C362.99 306.062 372.313 296.343 384.214 295.748C385.007 295.748 385.602 295.748 385.801 295.549C385.999 295.351 386.198 294.954 386.396 294.359L387.784 289.4C387.983 288.607 388.181 288.21 388.181 287.813C388.181 287.615 387.983 287.417 387.189 286.822C336.41 245.167 346.13 145.791 356.444 97.7891C359.42 83.9043 364.18 67.6391 387.983 58.1181C402.661 52.5641 408.215 53.5559 398.496 48.2003C390.958 43.8365 377.47 38.6793 360.015 43.8365C360.015 43.8365 362.792 34.1171 358.031 25.7862C357.436 24.7944 355.452 20.6289 353.866 20.8273C352.676 21.0257 353.271 23.2076 350.692 25.9845C349.7 27.1747 348.312 28.3648 346.527 29.7533C339.981 34.5138 331.055 39.8694 334.03 60.6967C334.03 60.6967 334.824 67.0441 329.071 70.2177C323.319 73.3914 317.17 70.4161 315.186 65.4572C315.186 65.4572 312.806 61.2918 316.972 51.7707C321.137 42.2497 324.311 40.6628 324.311 31.3401C324.311 20.2322 315.583 12.0997 310.228 4.76052C309.236 3.57039 307.252 0 305.864 0C304.475 0 302.293 3.76875 301.5 4.76052C296.144 12.0997 287.417 20.4306 287.417 31.3401C287.417 40.6628 290.392 42.2497 294.756 51.7707C298.921 61.2918 296.541 65.4572 296.541 65.4572C296.541 65.4572 293.764 72.0029 287.417 71.4079C276.11 70.6145 277.499 60.6967 277.499 60.6967C279.482 38.0842 271.548 34.5138 265.003 29.7533C263.217 28.3648 261.829 27.1747 261.035 25.9845C258.457 23.0092 258.457 20.8273 257.663 20.8273C256.077 20.6289 254.291 24.7944 253.696 25.7862C248.936 34.1171 251.713 43.8365 251.713 43.8365C234.059 38.6793 220.571 43.8365 213.033 48.3987C203.314 53.5559 210.257 52.1674 223.546 58.3164C242.787 66.0523 248.936 77.7552 252.506 88.6648C252.704 89.2598 252.903 89.8549 253.101 90.0533C253.101 90.2516 254.093 90.45 254.49 90.6483C258.258 92.0368 268.771 96.4006 281.069 104.136C282.656 105.128 283.45 105.922 284.045 105.723C284.64 105.525 284.838 104.93 285.631 103.74C290.392 96.4006 297.533 91.8385 305.665 91.8385C320.145 91.8385 331.848 107.31 331.848 126.551C331.848 135.873 329.071 144.204 324.707 150.552C325.104 151.94 324.112 152.932 323.319 153.924Z" fill="#DCDDDE"/>
<path d="M323.319 153.924C322.129 155.312 321.137 155.907 320.939 156.502C320.74 157.097 321.335 158.684 321.534 159.874C327.088 183.479 356.246 318.162 306.657 385.206C278.689 349.502 272.937 266.986 282.854 224.736C293.566 179.908 278.094 151.742 265.598 141.427C264.804 140.832 263.217 139.444 262.821 139.444C262.424 139.444 262.622 141.229 262.622 142.221C266.391 188.834 265.399 252.109 225.53 287.218C225.133 287.417 224.538 288.012 224.538 288.21C224.538 288.408 224.538 288.805 224.935 289.797L226.323 294.756C226.522 295.351 226.72 295.946 226.918 295.946C227.117 296.144 228.108 296.144 228.505 296.144C240.208 296.739 249.729 306.459 249.729 318.36C249.729 330.658 239.811 340.576 227.513 340.576C223.348 340.576 219.182 339.386 215.81 337.204C215.414 336.807 215.017 336.807 214.819 336.609C214.62 336.609 214.025 337.006 213.827 337.006L208.471 340.179C207.876 340.576 207.48 340.774 207.083 341.171C206.884 341.568 206.686 342.956 206.488 343.551C202.322 362.99 169.792 485.375 24.001 525.046C19.6372 526.435 11.5046 528.022 11.5046 529.41C11.5046 530.997 18.6454 536.749 24.1994 539.923C37.2908 546.27 57.3247 551.824 81.524 544.485C81.524 544.485 79.9372 549.246 79.7388 555.196C79.7388 557.775 79.5405 562.932 81.1273 563.13C82.5158 563.329 82.9125 561.544 87.2763 559.758C88.2681 559.362 89.4582 558.965 90.8467 558.767C97.9875 557.577 118.22 552.221 122.187 534.171C126.154 516.12 127.146 505.607 132.898 500.053C139.84 493.508 152.337 500.45 150.75 509.773C149.758 516.319 142.419 525.245 138.65 529.212C137.857 530.203 137.46 530.402 137.262 530.997C137.262 531.592 138.055 532.187 139.047 533.179C144.799 539.13 156.502 550.436 178.916 555.99C178.916 555.99 182.883 556.981 183.479 556.783C184.272 556.585 184.074 554.8 183.875 552.816C182.487 526.435 183.677 480.218 194.785 451.258C206.686 420.513 225.331 392.545 250.523 392.545C271.152 392.545 289.599 412.976 299.913 438.167C300.508 439.555 301.103 441.142 301.897 443.324C304.078 449.671 304.475 454.233 306.062 454.233C307.649 454.233 308.244 449.671 310.228 443.522C310.823 442.134 311.219 440.745 311.814 439.357C321.93 413.571 340.774 392.743 361.601 392.545C387.388 392.545 411.389 420.315 418.728 453.043C426.662 489.144 419.72 509.178 423.885 543.493C428.05 577.809 438.167 589.512 443.721 593.28C445.109 594.272 446.696 595.066 447.093 594.867C447.489 594.669 447.489 593.479 447.489 592.289C447.886 586.735 450.266 574.833 461.374 568.684C470.895 563.527 480.416 565.511 483.987 566.503C484.582 566.701 485.177 566.899 485.375 566.701C485.573 566.503 485.573 565.907 485.573 565.907C487.557 554.8 483.987 544.088 477.639 536.154C471.094 527.823 459.986 520.087 458.994 509.971C457.804 497.872 471.887 492.516 479.821 499.657C485.772 505.012 485.97 515.327 489.937 533.377C493.904 551.427 514.335 557.378 521.476 558.568C522.864 558.767 524.054 559.163 525.046 559.56C530.203 561.742 529.807 563.13 530.997 562.932C532.584 562.734 532.385 557.775 532.385 554.998C532.187 549.047 530.798 544.287 530.798 544.287C554.799 551.824 575.032 546.27 588.123 539.923C594.272 536.749 600.818 530.799 600.619 529.41C600.619 527.823 592.487 526.236 588.123 525.046C443.125 485.574 410.198 364.18 405.636 343.75C405.24 342.163 405.24 341.369 405.041 340.973C404.843 340.576 404.645 340.576 404.049 340.179L398.694 337.006C398.496 336.807 397.9 336.41 397.702 336.41C397.504 336.41 397.305 336.609 396.71 337.006C393.338 338.989 389.371 340.179 385.206 340.179C372.908 340.179 362.99 330.261 362.99 317.963C362.99 306.062 372.313 296.343 384.214 295.748C385.007 295.748 385.602 295.748 385.801 295.549C385.999 295.351 386.198 294.954 386.396 294.359L387.784 289.4C387.983 288.607 388.181 288.21 388.181 287.813C388.181 287.615 387.983 287.417 387.189 286.822C336.41 245.167 346.13 145.791 356.444 97.7891C359.42 83.9043 364.18 67.6391 387.983 58.1181C402.661 52.5641 408.215 53.5559 398.496 48.2003C390.958 43.8365 377.47 38.6793 360.015 43.8365C360.015 43.8365 362.792 34.1171 358.031 25.7862C357.436 24.7944 355.452 20.6289 353.866 20.8273C352.676 21.0257 353.271 23.2076 350.692 25.9845C349.7 27.1747 348.312 28.3648 346.527 29.7533C339.981 34.5138 331.055 39.8694 334.03 60.6967C334.03 60.6967 334.824 67.0441 329.071 70.2177C323.319 73.3914 317.17 70.4161 315.186 65.4572C315.186 65.4572 312.806 61.2918 316.972 51.7707C321.137 42.2497 324.311 40.6628 324.311 31.3401C324.311 20.2322 315.583 12.0997 310.228 4.76052C309.236 3.57039 307.252 0 305.864 0C304.475 0 302.293 3.76875 301.5 4.76052C296.144 12.0997 287.417 20.4306 287.417 31.3401C287.417 40.6628 290.392 42.2497 294.756 51.7707C298.921 61.2918 296.541 65.4572 296.541 65.4572C296.541 65.4572 293.764 72.0029 287.417 71.4079C276.11 70.6145 277.499 60.6967 277.499 60.6967C279.482 38.0842 271.548 34.5138 265.003 29.7533C263.217 28.3648 261.829 27.1747 261.035 25.9845C258.457 23.0092 258.457 20.8273 257.663 20.8273C256.077 20.6289 254.291 24.7944 253.696 25.7862C248.936 34.1171 251.713 43.8365 251.713 43.8365C234.059 38.6793 220.571 43.8365 213.033 48.3987C203.314 53.5559 210.257 52.1674 223.546 58.3164C242.787 66.0523 248.936 77.7552 252.506 88.6648C252.704 89.2598 252.903 89.8549 253.101 90.0533C253.101 90.2516 254.093 90.45 254.49 90.6483C258.258 92.0368 268.771 96.4006 281.069 104.136C282.656 105.128 283.45 105.922 284.045 105.723C284.64 105.525 284.838 104.93 285.631 103.74C290.392 96.4006 297.533 91.8385 305.665 91.8385C320.145 91.8385 331.848 107.31 331.848 126.551C331.848 135.873 329.071 144.204 324.707 150.552C325.104 151.94 324.112 152.932 323.319 153.924Z" fill="#DCDDDE"/>
<path d="M314.988 123.972C315.781 123.972 317.368 123.774 317.567 123.972C317.963 124.369 317.567 125.361 317.368 126.749C315.186 134.485 310.029 156.701 311.021 190.62C312.013 226.522 318.36 248.341 320.939 255.68C321.137 256.275 321.931 258.061 321.534 258.259C321.137 258.457 320.344 258.061 318.162 257.862C307.252 256.077 296.144 257.267 290.987 258.061C289.4 258.259 289.004 258.457 288.409 258.457C287.813 258.457 288.012 256.87 288.012 256.077C288.21 227.117 304.079 204.306 289.4 160.47C280.474 134.089 251.316 116.435 210.058 116.832C168.8 117.228 141.626 138.651 122.584 170.189C103.74 201.133 96.599 251.118 118.418 266.788C118.815 267.185 119.211 267.185 119.211 267.582C119.211 267.78 119.211 267.78 119.013 268.97L112.269 293.368C111.872 294.955 111.674 295.748 111.277 295.748C110.484 295.946 110.087 295.55 107.509 293.963C101.161 290.194 94.2187 288.806 90.0533 288.806C73.1931 288.806 59.5066 302.492 59.5066 319.352C59.5066 336.212 73.1931 350.097 90.0533 350.097C94.2187 350.097 98.1858 349.304 101.558 347.717C101.558 347.717 103.145 346.924 103.541 347.122C103.938 347.32 103.938 347.519 104.335 348.709L111.674 372.115C111.872 372.908 112.467 374.495 112.269 375.09C111.872 375.685 111.476 375.685 110.285 376.479C102.351 381.041 78.747 401.67 99.971 478.83C99.971 479.227 100.368 480.02 100.368 480.218C100.368 480.417 99.376 481.012 98.9792 481.409C89.6565 487.954 79.9371 493.111 73.5898 496.682C72.3997 497.277 71.4079 497.872 70.8128 497.674C70.2177 497.475 69.226 495.888 68.8293 495.293C61.4901 483.59 49.1921 457.804 37.4891 420.315C21.4224 368.544 24.001 353.668 1.58684 337.601C0.39671 336.808 0.198355 336.609 0 336.212C0.198355 335.419 0.198355 333.832 0.198355 333.436V302.294C0.198355 301.302 0.198355 301.302 0.39671 301.104C0.595066 300.905 1.38849 300.707 1.7852 300.509C7.14079 298.922 25.3895 291.979 39.671 267.978C55.3411 241.597 66.2506 186.058 97.5908 146.585C130.518 105.129 160.073 89.8553 212.24 91.2438C247.746 92.2356 274.722 110.683 282.259 115.84C289.4 120.402 299.913 125.559 314.988 123.972Z" fill="#DCDDDE"/>
<path d="M314.988 123.972C315.781 123.972 317.368 123.774 317.567 123.972C317.963 124.369 317.567 125.361 317.368 126.749C315.186 134.485 310.029 156.701 311.021 190.62C312.013 226.522 318.36 248.341 320.939 255.68C321.137 256.275 321.931 258.061 321.534 258.259C321.137 258.457 320.344 258.061 318.162 257.862C307.252 256.077 296.144 257.267 290.987 258.061C289.4 258.259 289.004 258.457 288.409 258.457C287.813 258.457 288.012 256.87 288.012 256.077C288.21 227.117 304.079 204.306 289.4 160.47C280.474 134.089 251.316 116.435 210.058 116.832C168.8 117.228 141.626 138.651 122.584 170.189C103.74 201.133 96.599 251.118 118.418 266.788C118.815 267.185 119.211 267.185 119.211 267.582C119.211 267.78 119.211 267.78 119.013 268.97L112.269 293.368C111.872 294.955 111.674 295.748 111.277 295.748C110.484 295.946 110.087 295.55 107.509 293.963C101.161 290.194 94.2187 288.806 90.0533 288.806C73.1931 288.806 59.5066 302.492 59.5066 319.352C59.5066 336.212 73.1931 350.097 90.0533 350.097C94.2187 350.097 98.1858 349.304 101.558 347.717C101.558 347.717 103.145 346.924 103.541 347.122C103.938 347.32 103.938 347.519 104.335 348.709L111.674 372.115C111.872 372.908 112.467 374.495 112.269 375.09C111.872 375.685 111.476 375.685 110.285 376.479C102.351 381.041 78.747 401.67 99.971 478.83C99.971 479.227 100.368 480.02 100.368 480.218C100.368 480.417 99.376 481.012 98.9792 481.409C89.6565 487.954 79.9371 493.111 73.5898 496.682C72.3997 497.277 71.4079 497.872 70.8128 497.674C70.2177 497.475 69.226 495.888 68.8293 495.293C61.4901 483.59 49.1921 457.804 37.4891 420.315C21.4224 368.544 24.001 353.668 1.58684 337.601C0.39671 336.808 0.198355 336.609 0 336.212C0.198355 335.419 0.198355 333.832 0.198355 333.436V302.294C0.198355 301.302 0.198355 301.302 0.39671 301.104C0.595066 300.905 1.38849 300.707 1.7852 300.509C7.14079 298.922 25.3895 291.979 39.671 267.978C55.3411 241.597 66.2506 186.058 97.5908 146.585C130.518 105.129 160.073 89.8553 212.24 91.2438C247.746 92.2356 274.722 110.683 282.259 115.84C289.4 120.402 299.913 125.559 314.988 123.972Z" fill="#DCDDDE"/>
<path d="M362.99 402.264C362.593 402.264 362.197 402.264 361.998 402.463C361.8 402.661 361.998 402.86 361.998 403.256C361.998 413.967 361.998 519.294 361.998 563.13C361.998 602.603 368.147 634.737 341.766 651.399C340.774 651.994 338.989 652.985 337.799 653.58C313.798 664.292 287.218 649.613 282.855 625.017C278.689 602.008 294.359 587.925 302.492 583.561C302.492 583.561 302.492 583.561 302.492 583.759C302.492 589.71 304.674 595.264 308.442 599.231C312.211 603.595 317.765 606.372 324.509 606.57C324.707 606.57 324.906 606.57 325.104 606.57C332.047 606.57 337.601 603.793 341.568 599.628C345.535 595.462 347.915 589.908 347.915 583.759C347.915 583.561 347.915 582.569 347.915 582.173C347.915 576.619 345.336 571.66 341.171 567.693C339.782 566.304 338.196 565.114 336.41 564.122C331.253 560.949 324.707 558.965 317.567 558.965C300.905 558.767 285.036 572.453 285.036 572.453C264.606 588.917 259.845 613.711 262.424 630.571C265.796 651.795 276.706 667.267 292.376 676.788C305.269 684.524 318.757 686.706 330.063 685.912C338.592 685.317 343.155 683.929 347.518 682.342C367.751 675.4 375.883 659.134 375.883 659.134C377.272 665.283 380.445 669.251 383.421 671.829C385.206 673.416 389.966 675.796 390.76 675.4C391.95 675.003 390.958 671.234 391.752 666.87C392.743 655.961 398.496 649.217 401.868 646.043C402.661 645.25 403.851 644.456 403.851 643.861C403.851 643.068 402.661 641.878 402.066 640.886C388.181 621.645 397.702 605.579 397.702 605.579C429.637 619.265 418.331 651.2 409.603 667.862C407.818 671.829 404.446 676.193 404.843 676.986C405.24 677.78 411.587 678.772 417.934 676.391C437.77 668.655 443.126 641.878 443.126 641.878C447.291 643.464 454.63 644.456 459.589 644.456C481.21 644.456 498.665 627.001 498.665 605.38C498.665 598.636 496.88 592.487 494.103 586.933C491.524 581.578 486.962 577.61 481.408 576.024C479.821 575.429 477.838 575.23 476.052 575.23C465.738 575.23 457.407 583.561 457.407 593.876C457.407 603.992 465.738 612.323 475.854 612.521H476.052C477.639 612.521 479.028 612.323 480.416 611.926C478.829 614.901 473.672 620.257 467.523 621.844C456.415 624.819 441.737 622.24 429.241 598.636C411.389 565.114 410.992 538.138 410.992 481.011C410.992 434.596 379.453 401.471 362.99 402.264Z" fill="#DCDDDE"/>
<path d="M362.99 402.264C362.593 402.264 362.197 402.264 361.998 402.463C361.8 402.661 361.998 402.86 361.998 403.256C361.998 413.967 361.998 519.294 361.998 563.13C361.998 602.603 368.147 634.737 341.766 651.399C340.774 651.994 338.989 652.985 337.799 653.58C313.798 664.292 287.218 649.613 282.855 625.017C278.689 602.008 294.359 587.925 302.492 583.561C302.492 583.561 302.492 583.561 302.492 583.759C302.492 589.71 304.674 595.264 308.442 599.231C312.211 603.595 317.765 606.372 324.509 606.57C324.707 606.57 324.906 606.57 325.104 606.57C332.047 606.57 337.601 603.793 341.568 599.628C345.535 595.462 347.915 589.908 347.915 583.759C347.915 583.561 347.915 582.569 347.915 582.173C347.915 576.619 345.336 571.66 341.171 567.693C339.782 566.304 338.196 565.114 336.41 564.122C331.253 560.949 324.707 558.965 317.567 558.965C300.905 558.767 285.036 572.453 285.036 572.453C264.606 588.917 259.845 613.711 262.424 630.571C265.796 651.795 276.706 667.267 292.376 676.788C305.269 684.524 318.757 686.706 330.063 685.912C338.592 685.317 343.155 683.929 347.518 682.342C367.751 675.4 375.883 659.134 375.883 659.134C377.272 665.283 380.445 669.251 383.421 671.829C385.206 673.416 389.966 675.796 390.76 675.4C391.95 675.003 390.958 671.234 391.752 666.87C392.743 655.961 398.496 649.217 401.868 646.043C402.661 645.25 403.851 644.456 403.851 643.861C403.851 643.068 402.661 641.878 402.066 640.886C388.181 621.645 397.702 605.579 397.702 605.579C429.637 619.265 418.331 651.2 409.603 667.862C407.818 671.829 404.446 676.193 404.843 676.986C405.24 677.78 411.587 678.772 417.934 676.391C437.77 668.655 443.126 641.878 443.126 641.878C447.291 643.464 454.63 644.456 459.589 644.456C481.21 644.456 498.665 627.001 498.665 605.38C498.665 598.636 496.88 592.487 494.103 586.933C491.524 581.578 486.962 577.61 481.408 576.024C479.821 575.429 477.838 575.23 476.052 575.23C465.738 575.23 457.407 583.561 457.407 593.876C457.407 603.992 465.738 612.323 475.854 612.521H476.052C477.639 612.521 479.028 612.323 480.416 611.926C478.829 614.901 473.672 620.257 467.523 621.844C456.415 624.819 441.737 622.24 429.241 598.636C411.389 565.114 410.992 538.138 410.992 481.011C410.992 434.596 379.453 401.471 362.99 402.264Z" fill="#DCDDDE"/>
<path d="M185.264 609.149C186.057 616.885 189.429 643.068 200.14 657.35C201.727 659.532 202.719 660.523 202.521 660.92C202.124 661.912 198.157 661.118 196.57 660.523C183.479 655.564 160.271 642.275 147.18 608.554C147.18 608.554 139.245 615.893 132.105 619.662C129.129 621.249 128.931 620.456 127.939 619.067C124.765 614.307 117.228 601.612 116.633 588.124C116.435 584.553 117.03 582.768 117.823 583.562C118.418 583.958 120.798 585.942 122.187 586.934C130.319 592.686 148.766 602.604 182.09 606.769C182.884 606.769 184.669 606.967 184.867 607.364C185.264 607.364 185.264 607.761 185.264 609.149Z" fill="#DCDDDE"/>
<path d="M185.264 609.149C186.057 616.885 189.429 643.068 200.14 657.35C201.727 659.532 202.719 660.523 202.521 660.92C202.124 661.912 198.157 661.118 196.57 660.523C183.479 655.564 160.271 642.275 147.18 608.554C147.18 608.554 139.245 615.893 132.105 619.662C129.129 621.249 128.931 620.456 127.939 619.067C124.765 614.307 117.228 601.612 116.633 588.124C116.435 584.553 117.03 582.768 117.823 583.562C118.418 583.958 120.798 585.942 122.187 586.934C130.319 592.686 148.766 602.604 182.09 606.769C182.884 606.769 184.669 606.967 184.867 607.364C185.264 607.364 185.264 607.761 185.264 609.149Z" fill="#DCDDDE"/>
<path d="M215.414 262.623C202.124 258.656 185.065 246.358 183.677 220.968C183.28 211.844 186.057 204.505 192.405 197.761C196.57 193 203.116 190.223 209.86 190.421C221.761 190.818 231.084 200.736 230.886 212.637C230.489 224.539 220.571 233.861 208.67 233.663C207.48 233.663 206.289 233.465 205.298 233.266C205.298 233.266 206.091 239.812 213.232 243.382C213.232 243.382 219.778 247.349 228.307 246.358C236.836 245.564 243.779 243.184 243.977 243.581C244.175 243.977 242.192 249.135 239.216 254.292C236.241 259.449 233.662 262.226 233.266 262.821C232.472 263.218 222.951 264.805 215.414 262.623Z" fill="#DCDDDE"/>
<path d="M215.414 262.623C202.124 258.656 185.065 246.358 183.677 220.968C183.28 211.844 186.057 204.505 192.405 197.761C196.57 193 203.116 190.223 209.86 190.421C221.761 190.818 231.084 200.736 230.886 212.637C230.489 224.539 220.571 233.861 208.67 233.663C207.48 233.663 206.289 233.465 205.298 233.266C205.298 233.266 206.091 239.812 213.232 243.382C213.232 243.382 219.778 247.349 228.307 246.358C236.836 245.564 243.779 243.184 243.977 243.581C244.175 243.977 242.192 249.135 239.216 254.292C236.241 259.449 233.662 262.226 233.266 262.821C232.472 263.218 222.951 264.805 215.414 262.623Z" fill="#DCDDDE"/>
</svg>
