<svg width="9" height="7" viewBox="0 0 9 7" fill="none" xmlns="http://www.w3.org/2000/svg">
<path d="M8.73638 1.64349L3.98851 6.71809C3.63692 7.09397 3.06659 7.09397 2.71467 6.71809L0.263789 4.09818C-0.0879297 3.7223 -0.0879297 3.11261 0.263789 2.73666C0.615575 2.36064 1.18586 2.36064 1.53749 2.73652L3.35178 4.67582L7.46248 0.281908C7.81426 -0.0941118 8.38459 -0.093827 8.73624 0.281908C9.0879 0.657857 9.0879 1.26733 8.73638 1.64349Z" fill="#70716F"/>
</svg>
