<svg width="41" height="55" viewBox="0 0 41 55" fill="none" xmlns="http://www.w3.org/2000/svg">
<path d="M36.5234 21.1629V16.1133C36.5234 7.22832 29.2951 0 20.4102 0C11.5252 0 4.29688 7.22832 4.29688 16.1133V21.1629C1.84799 21.6619 0 23.8321 0 26.4258V32.5241C0 33.1174 0.480881 33.5983 1.07422 33.5983C1.66756 33.5983 2.14844 33.1174 2.14844 32.5241V26.4258C2.14844 24.6487 3.59402 23.2031 5.37109 23.2031H35.4492C37.2263 23.2031 38.6719 24.6487 38.6719 26.4258V49.6289C38.6719 51.0292 37.7739 52.2234 36.5234 52.6669V46.1914C36.5234 45.5981 36.0426 45.1172 35.4492 45.1172C34.8559 45.1172 34.375 45.5981 34.375 46.1914V52.8516H5.37109C3.59402 52.8516 2.14844 51.406 2.14844 49.6289V41.1426C2.14844 40.5492 1.66756 40.0684 1.07422 40.0684C0.480881 40.0684 0 40.5492 0 41.1426V49.6289C0 52.5906 2.40944 55 5.37109 55H35.4492C38.4109 55 40.8203 52.5906 40.8203 49.6289V26.4258C40.8203 23.8321 38.9723 21.6619 36.5234 21.1629ZM12.2461 21.0547V16.1133C12.2461 11.6116 15.9085 7.94922 20.4102 7.94922C24.9118 7.94922 28.5742 11.6116 28.5742 16.1133V21.0547H12.2461ZM30.7227 21.0547V16.1133C30.7227 10.4271 26.0964 5.80078 20.4102 5.80078C14.7239 5.80078 10.0977 10.4271 10.0977 16.1133V21.0547H6.44531V16.1133C6.44531 8.4129 12.7098 2.14844 20.4102 2.14844C28.1105 2.14844 34.375 8.4129 34.375 16.1133V21.0547H30.7227Z" fill="#B70E0C"/>
<path d="M1.07422 37.865C1.35662 37.865 1.63399 37.7504 1.83372 37.5503C2.03346 37.3505 2.14844 37.0736 2.14844 36.7908C2.14844 36.5084 2.03346 36.231 1.83372 36.0317C1.63399 35.8315 1.35662 35.7166 1.07422 35.7166C0.791817 35.7166 0.51445 35.8315 0.314713 36.0317C0.114975 36.231 0 36.5084 0 36.7908C0 37.0736 0.114975 37.3505 0.314713 37.5503C0.51445 37.7504 0.791817 37.865 1.07422 37.865Z" fill="#B70E0C"/>
<path d="M20.41 49.1992C22.1871 49.1992 23.6326 47.7536 23.6326 45.9765V40.2722C25.2465 39.2039 26.2246 37.4079 26.2246 35.4399C26.2246 32.2416 23.6221 29.6392 20.4238 29.6392C17.2251 29.6392 14.623 32.2416 14.623 35.4399C14.623 37.3937 15.5903 39.1829 17.1873 40.2538V45.9765C17.1873 47.7536 18.6329 49.1992 20.41 49.1992ZM16.7715 35.4399C16.7715 33.4258 18.4097 31.7876 20.4238 31.7876C22.4376 31.7876 24.0762 33.4258 24.0762 35.4399C24.0762 36.823 23.3083 38.0714 22.0725 38.6987C21.7116 38.8816 21.4842 39.2517 21.4842 39.6567V45.9765C21.4842 46.569 21.0025 47.0507 20.41 47.0507C19.8175 47.0507 19.3358 46.569 19.3358 45.9765V39.6424C19.3358 39.2404 19.1113 38.872 18.7538 38.6878C17.531 38.0575 16.7715 36.8129 16.7715 35.4399Z" fill="#B70E0C"/>
<path d="M35.4492 42.8613C35.7329 42.8613 36.009 42.7464 36.2087 42.5466C36.4085 42.3469 36.5234 42.0708 36.5234 41.7871C36.5234 41.5034 36.4085 41.2273 36.2087 41.0276C36.009 40.8279 35.7329 40.7129 35.4492 40.7129C35.1668 40.7129 34.8894 40.8279 34.6897 41.0276C34.49 41.2273 34.375 41.5047 34.375 41.7871C34.375 42.0695 34.49 42.3469 34.6897 42.5466C34.8894 42.7464 35.1668 42.8613 35.4492 42.8613Z" fill="#B70E0C"/>
</svg>
