<svg width="59" height="54" viewBox="0 0 59 54" fill="none" xmlns="http://www.w3.org/2000/svg">
<path d="M53.3524 0.478535C53.1511 0.356951 52.9192 0.292236 52.6828 0.292236H14.5045C11.2223 0.292236 8.55199 2.88081 8.55199 6.05329L8.32763 38.2384H1.42805C0.719917 38.2384 0.145996 38.8002 0.145996 39.4935V45.2918C0.150503 49.5497 3.67516 53.0002 8.02464 53.0051C8.11278 53.0051 8.20143 52.9962 8.28807 52.9786H40.1417C40.3315 52.9918 40.5228 53.0006 40.7156 53.0006C45.1327 52.9928 48.7095 49.4865 48.711 45.1624V26.3481H57.3528C58.061 26.3481 58.6349 25.7863 58.6349 25.0931V6.46217C58.6194 3.46618 56.3783 0.927124 53.3524 0.478535ZM2.71011 45.2923V40.749H32.7203V45.1628C32.7188 47.1293 33.4745 49.0237 34.8372 50.4684H7.84936C7.78876 50.4689 7.72867 50.4734 7.66907 50.4822C4.8801 50.2964 2.71362 48.0289 2.71011 45.2923ZM46.1468 6.46217V45.1624C46.1443 46.5655 45.5749 47.9098 44.5628 48.9026C43.5937 49.8757 42.2771 50.4439 40.8899 50.4871C40.8208 50.4753 40.7507 50.4694 40.6801 50.4689H40.2293C37.4369 50.1998 35.3029 47.9103 35.2844 45.1633V39.4935C35.2844 38.8007 34.7105 38.2384 34.0023 38.2384H10.8917L11.1161 6.06211C11.1346 4.24717 12.6501 2.78864 14.5045 2.80237H47.4204C46.5946 3.85104 46.1463 5.13797 46.1468 6.46217ZM56.0708 23.838H48.711V6.46217C48.7445 4.49573 50.3821 2.91954 52.3909 2.91954C54.3996 2.91954 56.0372 4.49573 56.0708 6.46217V23.838Z" fill="#B70E0C"/>
<path d="M16.6053 13.8893H28.7478C29.4559 13.8893 30.0299 13.3274 30.0299 12.6342C30.0299 11.941 29.4559 11.3792 28.7478 11.3792H16.6053C15.8972 11.3792 15.3232 11.941 15.3232 12.6342C15.3232 13.3274 15.8972 13.8893 16.6053 13.8893Z" fill="#B70E0C"/>
<path d="M39.2557 20.3525H16.6053C15.8972 20.3525 15.3232 20.9144 15.3232 21.6076C15.3232 22.3003 15.8972 22.8627 16.6053 22.8627H39.2557C39.9638 22.8627 40.5377 22.3003 40.5377 21.6076C40.5377 20.9144 39.9638 20.3525 39.2557 20.3525Z" fill="#B70E0C"/>
<path d="M39.2557 29.3257H16.6053C15.8972 29.3257 15.3232 29.888 15.3232 30.5808C15.3232 31.274 15.8972 31.8358 16.6053 31.8358H39.2557C39.9638 31.8358 40.5377 31.274 40.5377 30.5808C40.5377 29.888 39.9638 29.3257 39.2557 29.3257Z" fill="#B70E0C"/>
</svg>
