<svg width="22" height="27" viewBox="0 0 22 27" fill="none" xmlns="http://www.w3.org/2000/svg">
<path d="M20.1893 15.7272C20.8683 15.7272 21.4115 16.3894 21.4115 17.2171V25.3291C21.4115 26.1569 20.8683 26.8191 20.1893 26.8191H1.26749C0.588478 26.8191 0 26.1569 0 25.3291V17.2171C0 16.3894 0.588478 15.7272 1.26749 15.7272C1.9465 15.7272 2.48971 16.3894 2.48971 17.2171V23.784H18.9671V17.2171C18.9671 16.3894 19.5103 15.7272 20.1893 15.7272Z" fill="#70716F"/>
<path d="M9.86851 19.0934L4.88908 13.0232C4.39114 12.4162 4.39114 11.5333 4.88908 10.9263C5.38702 10.3193 6.1113 10.3193 6.60925 10.9263L9.50637 14.4028V1.48995C9.50637 0.662198 10.0496 0 10.7286 0C11.4076 0 11.9508 0.662198 11.9508 1.48995V14.4028L14.8027 10.9263C15.3006 10.3193 16.0702 10.3193 16.5681 10.9263C17.066 11.5333 17.066 12.4162 16.5681 13.0232L11.5887 19.0934C11.3623 19.3693 11.0455 19.5349 10.7286 19.5349C10.4117 19.5349 10.0948 19.3693 9.86851 19.0934Z" fill="#70716F"/>
</svg>
