<svg width="368" height="67" viewBox="0 0 368 67" fill="none" xmlns="http://www.w3.org/2000/svg">
<path d="M34.3607 66.9091C15.388 66.9091 0 51.9078 0 33.4972C0 15.0013 15.388 0 34.3607 0C53.3333 0 68.7213 15.0013 68.7213 33.4972C68.6339 51.9078 53.2459 66.9091 34.3607 66.9091Z" fill="white"/>
<path d="M92.7651 36.0544C92.7651 35.9691 92.9399 35.9691 93.1148 35.9691C93.2022 35.9691 93.4645 35.9691 93.4645 36.0544L93.3771 38.9523C93.3771 39.1228 93.3771 39.208 93.1148 39.208C91.541 39.6342 90.6667 39.7194 89.0929 39.7194C85.5082 39.7194 82.7979 37.6738 82.7979 33.753C82.7979 29.8322 85.4208 27.7866 89.2678 27.7866C90.8416 27.7866 92.0656 27.9571 93.1148 28.1276C93.2897 28.1276 93.3771 28.298 93.3771 28.3833V31.2812C93.3771 31.3665 93.2022 31.3665 93.0274 31.3665C92.8525 31.3665 92.6776 31.3665 92.6776 31.2812L91.8033 28.9799C91.1039 28.5537 90.2295 28.4685 89.5301 28.4685C87.082 28.4685 85.5957 30.2584 85.5957 33.8383C85.5957 37.4181 87.1694 39.1228 89.4427 39.1228C90.2295 39.1228 91.0164 38.9523 91.7159 38.6114L92.7651 36.0544Z" fill="white"/>
<path d="M103.519 38.867L104.394 36.1395C104.394 36.0543 104.569 36.0543 104.743 36.0543C104.918 36.0543 105.093 36.0543 105.093 36.1395L104.918 39.2932C104.918 39.3784 104.918 39.5489 104.656 39.5489H95.3882C95.3008 39.5489 95.3008 39.4637 95.3008 39.208C95.3008 38.9522 95.3882 38.867 95.3882 38.867H96.7871C96.8745 37.2476 96.8746 35.5429 96.8746 33.7529C96.8746 31.963 96.8745 30.1731 96.7871 28.7241H95.3882C95.3008 28.7241 95.3008 28.6389 95.3008 28.3832C95.3008 28.1275 95.3882 28.0422 95.3882 28.0422H100.809C100.896 28.0422 100.896 28.1275 100.896 28.3832C100.896 28.6389 100.809 28.7241 100.809 28.7241H99.4101C99.3226 30.3436 99.3226 32.0483 99.3226 33.7529C99.3226 35.5429 99.3226 37.1623 99.4101 38.867H103.519Z" fill="white"/>
<path d="M112.262 39.8046C109.465 39.8046 107.191 39.0375 107.191 35.5428C107.191 33.412 107.191 30.9402 107.104 28.8093H105.705C105.618 28.8093 105.618 28.7241 105.618 28.4684C105.618 28.2127 105.705 28.1274 105.705 28.1274H111.126C111.213 28.1274 111.213 28.2127 111.213 28.4684C111.213 28.7241 111.126 28.8093 111.126 28.8093H109.727C109.64 31.1106 109.64 33.412 109.64 35.6281C109.64 38.3556 110.689 39.1227 112.7 39.1227C114.536 39.1227 116.022 38.0999 116.022 35.4576C116.022 33.3267 116.022 31.1107 115.935 28.8946H114.536C114.448 28.8946 114.361 28.8093 114.361 28.5536C114.361 28.2979 114.448 28.2127 114.536 28.2127H118.208C118.295 28.2127 118.295 28.2979 118.295 28.5536C118.295 28.8093 118.208 28.8946 118.208 28.8946H116.809C116.722 31.1107 116.722 33.3267 116.722 35.3724C116.809 38.4408 115.06 39.8046 112.262 39.8046Z" fill="white"/>
<path d="M126.601 33.3268C128.962 33.4972 130.361 34.6905 130.361 36.31C130.361 38.2704 129.049 39.5489 125.639 39.5489H119.956C119.869 39.5489 119.869 39.4637 119.869 39.208C119.869 38.9522 119.956 38.867 119.956 38.867H121.355C121.443 37.2476 121.443 35.5429 121.443 33.8382C121.443 32.0483 121.443 30.2583 121.355 28.7241H119.956C119.869 28.7241 119.869 28.6389 119.869 28.3832C119.869 28.1275 119.956 28.0422 119.956 28.0422H125.202C128.35 28.0422 129.661 28.7241 129.661 30.5993C129.574 31.963 128.699 32.9006 126.601 33.3268ZM124.415 33.0711C126.251 33.0711 126.951 32.0483 126.951 30.7697C126.951 29.4912 126.251 28.8093 124.678 28.8093H123.891C123.891 30.2583 123.803 31.5368 123.803 33.0711H124.415ZM123.978 38.867H124.765C126.863 38.867 127.563 37.9294 127.563 36.3952C127.563 34.861 126.863 33.7529 124.503 33.7529H123.978C123.891 35.5429 123.891 37.2476 123.978 38.867Z" fill="white"/>
<path d="M140.503 35.7133L139.279 38.9522H140.415C140.503 38.9522 140.503 39.0375 140.503 39.2932C140.503 39.5489 140.415 39.6341 140.415 39.6341H137.268C137.18 39.6341 137.18 39.5489 137.18 39.2932C137.18 39.0375 137.268 38.9522 137.268 38.9522H138.317C139.891 35.2871 141.202 31.8778 142.601 28.2127C142.601 28.1274 142.689 28.1274 142.776 28.1274H143.65C143.738 28.1274 143.825 28.2127 143.825 28.2127C145.312 31.8778 146.623 35.2871 148.284 38.9522H149.246C149.333 38.9522 149.333 39.0375 149.333 39.2932C149.333 39.5489 149.246 39.6341 149.246 39.6341H144.262C144.175 39.6341 144.175 39.5489 144.175 39.2932C144.175 39.0375 144.262 38.9522 144.262 38.9522H145.399C144.962 37.7589 144.612 36.9066 144.175 35.7133H140.503ZM144 35.0314C143.388 33.412 143.038 32.4744 142.426 30.8549L140.765 35.0314H144Z" fill="white"/>
<path d="M160.35 28.1274C160.525 28.1274 160.612 28.2979 160.612 28.3831V31.5368C160.612 31.6221 160.437 31.6221 160.262 31.6221C160.175 31.6221 159.913 31.6221 159.913 31.5368L158.863 28.8093H156.24C156.153 30.4288 156.153 32.0482 156.153 33.8382C156.153 35.6281 156.153 37.2475 156.24 38.9522H158.251C158.339 38.9522 158.339 39.0375 158.339 39.2932C158.339 39.5489 158.251 39.6341 158.251 39.6341H151.607C151.519 39.6341 151.519 39.5489 151.519 39.2932C151.519 39.0375 151.607 38.9522 151.607 38.9522H153.617C153.705 37.3328 153.705 35.6281 153.705 33.8382C153.705 32.0482 153.705 30.4288 153.617 28.8093H150.994L149.945 31.5368C149.945 31.6221 149.77 31.6221 149.596 31.6221C149.421 31.6221 149.246 31.6221 149.246 31.5368V28.3831C149.246 28.2979 149.246 28.1274 149.508 28.1274H160.35Z" fill="white"/>
<path d="M166.12 38.9522H167.519C167.607 38.9522 167.607 39.0375 167.607 39.2932C167.607 39.5489 167.519 39.6341 167.519 39.6341H162.098C162.011 39.6341 162.011 39.5489 162.011 39.2932C162.011 39.0375 162.098 38.9522 162.098 38.9522H163.497C163.585 37.3328 163.585 35.6281 163.585 33.9234C163.585 32.1335 163.585 30.3435 163.497 28.8093H162.098C162.011 28.8093 162.011 28.7241 162.011 28.4684C162.011 28.2127 162.098 28.1274 162.098 28.1274H167.519C167.607 28.1274 167.607 28.2127 167.607 28.4684C167.607 28.7241 167.519 28.8093 167.519 28.8093H166.12C166.033 30.2583 166.033 31.6221 166.033 33.2415H171.366C171.366 31.7073 171.366 30.1731 171.279 28.8093H169.88C169.792 28.8093 169.792 28.7241 169.792 28.4684C169.792 28.2127 169.88 28.1274 169.88 28.1274H175.388C175.475 28.1274 175.475 28.2127 175.475 28.4684C175.475 28.7241 175.388 28.8093 175.388 28.8093H173.989C173.902 30.4288 173.902 32.1335 173.902 33.8382C173.902 35.6281 173.902 37.2475 173.989 38.9522H175.388C175.475 38.9522 175.475 39.0375 175.475 39.2932C175.475 39.5489 175.388 39.6341 175.388 39.6341H169.88C169.792 39.6341 169.792 39.5489 169.792 39.2932C169.792 39.0375 169.88 38.9522 169.88 38.9522H171.279C171.366 37.3328 171.366 35.7133 171.366 33.9234H166.12C166.12 35.6281 166.033 37.2475 166.12 38.9522Z" fill="white"/>
<path d="M185.53 38.867L186.404 36.1395C186.404 36.0543 186.579 36.0543 186.754 36.0543C186.841 36.0543 187.104 36.0543 187.104 36.1395L187.016 39.2932C187.016 39.3784 187.016 39.5489 186.754 39.5489H177.486C177.399 39.5489 177.311 39.4637 177.311 39.208C177.311 38.9522 177.399 38.867 177.486 38.867H178.885C178.972 37.2476 178.972 35.5429 178.972 33.7529C178.972 31.963 178.972 30.1731 178.885 28.7241H177.486C177.399 28.7241 177.311 28.6389 177.311 28.3832C177.311 28.1275 177.399 28.0422 177.486 28.0422H182.907C182.994 28.0422 182.994 28.1275 182.994 28.3832C182.994 28.6389 182.907 28.7241 182.907 28.7241H181.508C181.421 30.3436 181.421 32.0483 181.421 33.7529C181.421 35.5429 181.421 37.1623 181.508 38.867H185.53Z" fill="white"/>
<path d="M194.973 33.2415L195.585 31.4516C195.585 31.3664 195.759 31.3664 195.934 31.3664C196.109 31.3664 196.284 31.3664 196.284 31.4516C196.197 32.9006 196.197 34.3496 196.284 35.7133C196.284 35.7986 196.109 35.7986 195.934 35.7986C195.847 35.7986 195.585 35.7986 195.585 35.7133L194.973 33.9234H192.699C192.699 35.7133 192.787 37.3328 192.787 38.9523H197.158L198.033 36.2247C198.033 36.1395 198.208 36.1395 198.382 36.1395C198.557 36.1395 198.732 36.1395 198.732 36.2247L198.645 39.3784C198.645 39.4637 198.645 39.6341 198.382 39.6341H188.678C188.59 39.6341 188.59 39.5489 188.59 39.2932C188.59 39.0375 188.678 38.9523 188.678 38.9523H190.076C190.164 37.3328 190.164 35.6281 190.164 33.8382C190.164 32.0483 190.164 30.2583 190.076 28.7241H188.678C188.59 28.7241 188.59 28.6389 188.59 28.3832C188.59 28.1275 188.678 28.0422 188.678 28.0422H197.945C198.12 28.0422 198.208 28.2127 198.208 28.2979V30.9402C198.208 31.0254 198.033 31.0254 197.858 31.0254C197.683 31.0254 197.508 31.0254 197.508 30.9402L196.721 28.7241H192.787C192.787 30.1731 192.699 31.6221 192.699 33.2415H194.973Z" fill="white"/>
<path d="M211.235 28.1274C211.41 28.1274 211.497 28.2979 211.497 28.3831V31.5368C211.497 31.6221 211.322 31.6221 211.147 31.6221C211.06 31.6221 210.798 31.6221 210.798 31.5368L209.749 28.8093H207.126C207.038 30.4288 207.038 32.0482 207.038 33.8382C207.038 35.6281 207.038 37.2475 207.126 38.9522H209.137C209.224 38.9522 209.224 39.0375 209.224 39.2932C209.224 39.5489 209.137 39.6341 209.137 39.6341H202.492C202.404 39.6341 202.404 39.5489 202.404 39.2932C202.404 39.0375 202.492 38.9522 202.492 38.9522H204.503C204.59 37.3328 204.59 35.6281 204.59 33.8382C204.59 32.0482 204.59 30.4288 204.503 28.8093H201.88L200.831 31.5368C200.831 31.6221 200.656 31.6221 200.481 31.6221C200.393 31.6221 200.131 31.6221 200.131 31.5368V28.3831C200.131 28.2979 200.131 28.1274 200.393 28.1274H211.235Z" fill="white"/>
<path d="M212.984 28.8093C212.896 28.8093 212.809 28.7241 212.809 28.4684C212.809 28.2127 212.896 28.1274 212.984 28.1274H218.405C218.492 28.1274 218.492 28.2127 218.492 28.4684C218.492 28.7241 218.405 28.8093 218.405 28.8093H217.006C216.918 30.4288 216.918 32.1335 216.918 33.8382C216.918 35.6281 216.918 37.2475 217.006 38.9522H218.405C218.492 38.9522 218.492 39.0375 218.492 39.2932C218.492 39.5489 218.405 39.6341 218.405 39.6341H212.984C212.896 39.6341 212.809 39.5489 212.809 39.2932C212.809 39.0375 212.896 38.9522 212.984 38.9522H214.383C214.47 37.3328 214.47 35.6281 214.47 33.9234C214.47 32.1335 214.47 30.514 214.383 28.8093H212.984Z" fill="white"/>
<path d="M230.207 36.0544C230.207 35.9691 230.382 35.9691 230.557 35.9691C230.645 35.9691 230.907 35.9691 230.907 36.0544L230.819 38.9523C230.819 39.1228 230.819 39.208 230.557 39.208C228.983 39.6342 228.109 39.7194 226.535 39.7194C222.951 39.7194 220.24 37.6738 220.24 33.753C220.24 29.8322 222.863 27.7866 226.623 27.7866C228.197 27.7866 229.421 27.9571 230.47 28.1276C230.645 28.1276 230.732 28.298 230.732 28.3833V31.2812C230.732 31.3665 230.557 31.3665 230.382 31.3665C230.295 31.3665 230.033 31.3665 230.033 31.2812L229.246 28.8947C228.546 28.4685 227.672 28.3833 226.972 28.3833C224.524 28.3833 223.038 30.1732 223.038 33.753C223.038 37.3329 224.612 39.0376 226.885 39.0376C227.672 39.0376 228.459 38.8671 229.158 38.5262L230.207 36.0544Z" fill="white"/>
<path d="M244.984 33.838C244.984 37.7588 242.361 39.8044 238.776 39.8044C235.279 39.8044 232.568 37.7588 232.568 33.838C232.568 29.9172 235.191 27.8716 238.776 27.8716C242.361 27.8716 244.984 29.9172 244.984 33.838ZM235.366 33.838C235.366 37.4178 236.765 39.2078 238.776 39.2078C240.787 39.2078 242.186 37.4178 242.186 33.838C242.186 30.2581 240.787 28.4682 238.776 28.4682C236.765 28.4682 235.366 30.2581 235.366 33.838Z" fill="white"/>
<path d="M252.503 39.5489C252.415 39.5489 252.415 39.4637 252.415 39.208C252.415 38.9522 252.503 38.867 252.503 38.867H253.902C253.989 37.2476 253.989 35.5429 253.989 33.8382C253.989 32.0483 253.989 30.2583 253.902 28.7241H252.503C252.415 28.7241 252.415 28.6389 252.415 28.3832C252.415 28.1275 252.503 28.0422 252.503 28.0422H258.186C261.596 28.0422 262.557 29.406 262.557 31.2811C262.557 33.412 261.246 34.6905 256.962 34.6905H256.437C256.437 36.2247 256.525 37.418 256.525 38.867H257.923C258.011 38.867 258.011 38.9522 258.011 39.208C258.011 39.4637 257.923 39.5489 257.923 39.5489H252.503ZM257.137 34.0939C259.148 34.0939 259.934 32.9006 259.934 31.4516C259.934 29.7469 259.41 28.8093 257.486 28.8093H256.699C256.699 30.514 256.612 32.304 256.612 34.0939H257.137Z" fill="white"/>
<path d="M265.443 35.7133L264.219 38.9522H265.355C265.443 38.9522 265.443 39.0375 265.443 39.2932C265.443 39.5489 265.355 39.6341 265.355 39.6341H262.208C262.12 39.6341 262.12 39.5489 262.12 39.2932C262.12 39.0375 262.208 38.9522 262.208 38.9522H263.257C264.831 35.2871 266.142 31.8778 267.541 28.2127C267.541 28.1274 267.628 28.1274 267.716 28.1274H268.59C268.678 28.1274 268.765 28.2127 268.765 28.2127C270.251 31.8778 271.563 35.2871 273.224 38.9522H274.186C274.273 38.9522 274.361 39.0375 274.361 39.2932C274.361 39.5489 274.273 39.6341 274.186 39.6341H269.202C269.115 39.6341 269.115 39.5489 269.115 39.2932C269.115 39.0375 269.202 38.9522 269.202 38.9522H270.339C269.902 37.7589 269.552 36.9066 269.115 35.7133H265.443ZM268.94 35.0314C268.328 33.412 267.978 32.4744 267.366 30.8549L265.705 35.0314H268.94Z" fill="white"/>
<path d="M280.831 39.8046C278.033 39.8046 275.76 39.0375 275.76 35.5428C275.76 33.412 275.76 30.9402 275.672 28.8093H274.273C274.186 28.8093 274.186 28.7241 274.186 28.4684C274.186 28.2127 274.273 28.1274 274.273 28.1274H279.694C279.782 28.1274 279.782 28.2127 279.782 28.4684C279.782 28.7241 279.694 28.8093 279.694 28.8093H278.295C278.208 31.1106 278.208 33.412 278.208 35.6281C278.208 38.3556 279.257 39.1227 281.268 39.1227C283.104 39.1227 284.59 38.0999 284.59 35.4576C284.59 33.3267 284.59 31.1107 284.503 28.8946H283.104C283.017 28.8946 283.017 28.8093 283.017 28.5536C283.017 28.2979 283.104 28.2127 283.104 28.2127H286.776C286.864 28.2127 286.864 28.2979 286.864 28.5536C286.864 28.8093 286.776 28.8946 286.776 28.8946H285.377C285.29 31.1107 285.29 33.3267 285.29 35.3724C285.377 38.4408 283.629 39.8046 280.831 39.8046Z" fill="white"/>
<path d="M296.481 38.867L297.355 36.1395C297.355 36.0543 297.53 36.0543 297.705 36.0543C297.792 36.0543 298.055 36.0543 298.055 36.1395L297.967 39.2932C297.967 39.3784 297.967 39.5489 297.705 39.5489H288.437C288.35 39.5489 288.35 39.4637 288.35 39.208C288.35 38.9522 288.437 38.867 288.437 38.867H289.836C289.923 37.2476 289.923 35.5429 289.923 33.7529C289.923 31.963 289.923 30.1731 289.836 28.7241H288.437C288.35 28.7241 288.35 28.6389 288.35 28.3832C288.35 28.1275 288.437 28.0422 288.437 28.0422H293.858C293.945 28.0422 293.945 28.1275 293.945 28.3832C293.945 28.6389 293.858 28.7241 293.858 28.7241H292.459C292.371 30.3436 292.371 32.0483 292.371 33.7529C292.371 35.5429 292.371 37.1623 292.459 38.867H296.481Z" fill="white"/>
<path d="M299.716 28.8093C299.628 28.8093 299.541 28.7241 299.541 28.4684C299.541 28.2127 299.628 28.1274 299.716 28.1274H305.137C305.224 28.1274 305.224 28.2127 305.224 28.4684C305.224 28.7241 305.137 28.8093 305.137 28.8093H303.738C303.65 30.4288 303.65 32.1335 303.65 33.8382C303.65 35.6281 303.65 37.2475 303.738 38.9522H305.137C305.224 38.9522 305.224 39.0375 305.224 39.2932C305.224 39.5489 305.137 39.6341 305.137 39.6341H299.716C299.628 39.6341 299.541 39.5489 299.541 39.2932C299.541 39.0375 299.628 38.9522 299.716 38.9522H301.115C301.202 37.3328 301.202 35.6281 301.202 33.9234C301.202 32.1335 301.202 30.514 301.115 28.8093H299.716Z" fill="white"/>
<path d="M314.929 28.2981C315.104 28.3833 315.191 28.4685 315.191 28.5538L315.104 31.3665C315.104 31.4517 314.929 31.4517 314.754 31.4517C314.667 31.4517 314.404 31.4517 314.404 31.3665L313.705 29.1504C313.18 28.8095 312.219 28.5538 311.519 28.5538C310.295 28.5538 309.508 29.1504 309.508 30.088C309.508 31.1108 310.12 31.7074 312.306 32.5598C314.841 33.5826 315.978 34.6054 315.978 36.3953C315.978 38.6114 313.967 39.8047 311.344 39.8047C309.858 39.8047 308.634 39.6342 307.41 39.2933C307.235 39.2081 307.147 39.1228 307.147 39.0376V36.2249C307.147 36.1396 307.322 36.1396 307.497 36.1396C307.585 36.1396 307.847 36.1396 307.847 36.2249L308.721 38.6967C309.333 39.1228 310.47 39.2933 311.257 39.2933C312.743 39.2933 313.792 38.6967 313.792 37.4181C313.792 36.4806 313.093 35.8839 310.994 34.9463C308.459 33.8383 307.41 32.7302 307.41 31.1108C307.41 29.4061 308.896 27.9571 311.606 27.9571C312.743 27.8719 314.229 28.1276 314.929 28.2981Z" fill="white"/>
<path d="M328.393 28.1274C328.568 28.1274 328.656 28.2979 328.656 28.3831V31.5368C328.656 31.6221 328.481 31.6221 328.306 31.6221C328.131 31.6221 327.956 31.6221 327.956 31.5368L326.907 28.8093H324.284C324.197 30.4288 324.197 32.0482 324.197 33.8382C324.197 35.6281 324.197 37.2475 324.284 38.9522H326.295C326.382 38.9522 326.382 39.0375 326.382 39.2932C326.382 39.5489 326.295 39.6341 326.295 39.6341H319.65C319.563 39.6341 319.563 39.5489 319.563 39.2932C319.563 39.0375 319.65 38.9522 319.65 38.9522H321.661C321.749 37.3328 321.749 35.6281 321.749 33.8382C321.749 32.0482 321.749 30.4288 321.661 28.8093H319.038L317.989 31.5368C317.989 31.6221 317.814 31.6221 317.639 31.6221C317.552 31.6221 317.29 31.6221 317.29 31.5368V28.3831C317.29 28.2979 317.29 28.1274 317.552 28.1274H328.393Z" fill="white"/>
<path d="M331.716 35.7133L330.492 38.9522H331.628C331.716 38.9522 331.716 39.0375 331.716 39.2932C331.716 39.5489 331.628 39.6341 331.628 39.6341H328.481C328.394 39.6341 328.394 39.5489 328.394 39.2932C328.394 39.0375 328.481 38.9522 328.481 38.9522H329.53C331.104 35.2871 332.415 31.8778 333.814 28.2127C333.814 28.1274 333.902 28.1274 333.989 28.1274H334.863C334.951 28.1274 335.038 28.2127 335.038 28.2127C336.525 31.8778 337.836 35.2871 339.497 38.9522H340.459C340.546 38.9522 340.546 39.0375 340.546 39.2932C340.546 39.5489 340.459 39.6341 340.459 39.6341H335.475C335.388 39.6341 335.388 39.5489 335.388 39.2932C335.388 39.0375 335.475 38.9522 335.475 38.9522H336.612C336.175 37.7589 335.825 36.9066 335.388 35.7133H331.716ZM335.213 35.0314C334.601 33.412 334.251 32.4744 333.639 30.8549L331.978 35.0314H335.213Z" fill="white"/>
<path d="M350.951 39.4637C348.94 36.2247 346.317 32.4744 344.131 29.1503C344.044 32.3892 344.044 35.5429 344.131 38.867H345.53C345.618 38.867 345.618 38.9522 345.618 39.208C345.618 39.4637 345.53 39.5489 345.53 39.5489H341.858C341.771 39.5489 341.771 39.4637 341.771 39.208C341.771 38.9522 341.858 38.867 341.858 38.867H343.257C343.344 35.6281 343.344 31.963 343.257 28.7241H341.858C341.771 28.7241 341.771 28.6389 341.771 28.3832C341.771 28.1275 341.858 28.0422 341.858 28.0422H346.404C346.492 28.0422 346.492 28.0422 346.492 28.1275C348.153 30.7697 350.339 33.9234 352.088 36.5657C352.088 33.5825 352.087 31.2811 352 28.7241H350.601C350.514 28.7241 350.514 28.6389 350.514 28.3832C350.514 28.1275 350.601 28.0422 350.601 28.0422H354.098C354.186 28.0422 354.186 28.1275 354.186 28.3832C354.186 28.6389 354.098 28.7241 354.098 28.7241H352.787C352.7 31.963 352.787 35.7133 352.787 39.3784C352.787 39.4637 352.7 39.4637 352.612 39.4637H350.863C351.038 39.5489 351.038 39.5489 350.951 39.4637Z" fill="white"/>
<path d="M368 33.838C368 37.7588 365.377 39.8044 361.792 39.8044C358.295 39.8044 355.584 37.7588 355.584 33.838C355.584 29.9172 358.207 27.8716 361.792 27.8716C365.377 27.8716 368 29.9172 368 33.838ZM358.47 33.838C358.47 37.4178 359.869 39.2078 361.88 39.2078C363.89 39.2078 365.289 37.4178 365.289 33.838C365.289 30.2581 363.89 28.4682 361.88 28.4682C359.781 28.4682 358.47 30.2581 358.47 33.838Z" fill="white"/>
<path d="M34.3606 65.4599C25.7048 65.4599 17.4862 62.1358 11.366 56.1694C5.15837 50.1177 1.74854 42.1909 1.74854 33.6674C1.74854 25.2292 5.15837 17.2172 11.2786 11.2508C17.3988 5.28435 25.6174 1.96021 34.2731 1.96021C42.9289 1.96021 51.1474 5.28435 57.2677 11.2508C63.3879 17.2172 66.7977 25.2292 66.7977 33.6674C66.7977 42.1057 63.3879 50.1177 57.2677 56.0841C51.2349 62.1358 43.0163 65.4599 34.3606 65.4599ZM34.3606 3.49443C17.2239 3.49443 3.32231 17.0467 3.32231 33.6674C3.32231 50.3734 17.2239 63.9257 34.3606 63.9257C51.4097 63.9257 65.3988 50.3734 65.3988 33.6674C65.3114 17.0467 51.4097 3.49443 34.3606 3.49443Z" fill="#D20A11"/>
<path d="M19.9344 48.5836C19.847 48.8393 19.6721 49.1802 19.3224 49.6064C19.0601 49.8621 18.6229 50.1178 18.3606 50.203C18.2732 50.2883 18.2732 50.2883 18.2732 50.2883C18.2732 50.2883 18.3606 50.3735 18.3606 50.4587C19.9344 52.0782 22.8196 52.9305 24.7431 52.9305C29.4644 52.9305 32.612 49.6916 32.612 45.4299C32.612 43.2138 31.9125 41.5943 30.1639 40.4863C29.5519 40.1454 28.5901 39.8896 27.9781 39.8896C27.7158 39.8896 27.541 39.8897 27.2787 39.9749C26.4918 40.2306 25.8798 40.9977 25.8798 41.85C25.8798 42.9581 26.8415 43.8957 27.9781 43.8957C28.9399 43.8957 29.8142 43.2138 29.989 42.2762C30.6885 42.8729 30.7759 44.6628 30.7759 45.2594C30.6011 48.4131 28.0655 50.7144 24.5683 50.544C22.9945 50.4587 21.1584 49.5211 20.1967 48.5836L20.0218 48.4131C19.9344 48.4131 19.9344 48.4983 19.9344 48.5836Z" fill="#D20A11"/>
<path d="M41.5301 32.1333C41.4426 32.0481 41.2678 31.9628 41.0055 31.7924H41.1803C41.0055 32.1333 40.6558 32.3038 40.2186 32.3038C39.6066 32.3038 39.1694 31.7924 39.1694 31.281C39.1694 30.6843 39.694 30.2582 40.2186 30.2582C40.3935 30.2582 40.5683 30.3434 40.7432 30.4286L41.1803 28.7239C39.1694 26.8488 37.2459 24.2917 38.2077 16.5354C38.2077 16.4502 38.2077 16.3649 38.2077 16.3649C38.2077 16.3649 38.2951 16.3649 38.47 16.4502C38.8197 16.6206 39.5191 17.0468 40.0437 17.8139C41.4426 15.7683 44.153 14.4045 46.8634 14.4045H46.9508C50.623 14.4045 53.5956 16.7911 54.47 20.1153C54.47 20.2005 54.47 20.2005 54.5574 20.2857C54.5574 20.4562 54.6448 20.5414 54.6448 20.7119C55.082 22.8428 55.8689 24.6327 57.6175 25.3146C57.7049 25.3146 57.7924 25.3998 57.7924 25.3998C57.7924 25.3998 57.7924 25.485 57.7924 25.5703V27.8716V27.9568C57.7924 27.9568 57.7924 27.9568 57.7049 27.9568C57.4426 28.0421 56.1312 28.4682 55.3443 30.3434C54.6448 31.9628 54.6448 34.1789 53.7705 35.7984C52.8088 37.6736 50.7104 38.7816 48.3497 38.7816C45.2896 38.7816 42.929 36.5655 43.0164 33.6675C43.0164 32.73 43.7159 30.5139 46.164 30.3434C46.8634 30.2582 47.4754 30.5139 48 30.94C48.3497 31.281 48.612 31.7924 48.612 32.3038C48.612 33.2414 47.8252 34.0085 46.8634 34.0085C45.9017 34.0085 45.1148 33.2414 45.1148 32.3038C45.1148 32.2186 45.1148 32.1333 45.1148 32.0481C45.1148 32.0481 44.4153 32.2185 44.3279 33.3266C44.153 34.6051 44.8525 36.0541 46.164 36.6507C46.9508 37.0769 48.0875 37.1622 48.8743 36.9064C50.7104 36.395 51.7596 34.8608 51.7596 33.2414C51.7596 32.0481 51.4973 31.281 50.7104 30.7696C50.623 30.6843 50.623 30.6843 50.5355 30.6843C50.5355 30.6843 50.5355 30.5991 50.5355 30.5139C50.623 30.0877 50.8853 29.1501 51.0601 28.7239C51.0601 28.6387 51.1476 28.5535 51.1476 28.5535C51.235 28.5535 51.3224 28.5535 51.3224 28.6387C51.5847 28.7239 51.9344 28.8092 52.1967 28.8092C53.3334 28.8092 54.2951 27.8716 54.2951 26.7635C54.2951 25.6555 53.3334 24.7179 52.1967 24.7179C51.7596 24.7179 51.3224 24.8884 51.1476 24.9736C51.0601 25.0589 50.9727 25.0589 50.9727 25.0589C50.9727 25.0589 50.8853 24.8884 50.8853 24.8032C50.7104 24.377 50.4481 23.4394 50.3607 23.0985C50.3607 23.0132 50.3607 23.0132 50.3607 22.928L50.4481 22.8428C50.7104 22.6723 51.5847 21.9052 51.5847 20.2005C51.5847 18.1549 49.7487 16.3649 46.8634 16.3649C43.9782 16.3649 42.1421 18.0696 41.8798 21.479C41.7049 23.0985 41.6175 25.3998 41.6175 27.7011C41.6175 28.2978 41.5301 31.281 41.5301 32.0481C41.5301 32.1333 41.5301 32.2186 41.5301 32.2186C41.7924 32.2186 41.6175 32.2186 41.5301 32.1333Z" fill="#D20A11"/>
<path d="M35.1478 18.5813C35.0603 18.6665 34.9729 18.6665 34.9729 18.7517C34.9729 18.837 34.9729 18.9222 35.0603 19.0074C35.4975 20.7974 37.8581 31.2812 33.9237 36.4805C31.7379 33.753 31.2133 27.3604 32.0002 24.0363C32.8745 20.5417 31.6505 18.4108 30.6013 17.5585C30.5139 17.4732 30.4265 17.388 30.339 17.388V17.5585C30.6013 21.1383 30.6013 26.0819 27.3663 28.8094L27.2789 28.8946V28.9799L27.3663 29.4061C27.3663 29.4913 27.3663 29.4913 27.4538 29.4913H27.5412C28.503 29.4913 29.2024 30.2584 29.2024 31.196C29.2024 32.1336 28.4155 32.9007 27.4538 32.9007C27.1041 32.9007 26.7543 32.8154 26.492 32.645H26.4046H26.3172L25.88 32.9007C25.7926 32.9007 25.7926 32.9859 25.7926 32.9859C25.7926 32.9859 25.7926 33.1564 25.7051 33.1564C25.3554 34.6906 22.8199 44.1516 11.1915 47.2201C10.8418 47.3053 10.2297 47.4758 10.2297 47.561C10.2297 47.6462 10.7543 48.1576 11.1915 48.4133C12.2407 48.9248 13.8144 49.3509 15.7379 48.7543C15.7379 48.7543 15.6505 49.0952 15.5631 49.6066C15.5631 49.7771 15.5631 50.2033 15.6505 50.2033C15.7379 50.2033 15.8254 50.118 16.1751 49.9476C16.2625 49.9476 16.35 49.8623 16.4374 49.8623C17.0494 49.7771 18.6232 49.3509 18.8855 47.9872C19.2352 46.6234 19.3226 45.7711 19.7598 45.3449C20.2844 44.8335 21.3336 45.3449 21.1587 46.112C21.0713 46.6234 20.4592 47.3053 20.1969 47.6462C20.1095 47.7315 20.1095 47.7315 20.1095 47.8167C20.1095 47.8167 20.1969 47.9019 20.2844 47.9872C20.7215 48.4133 21.6833 49.3509 23.4319 49.7771L23.7816 49.8623C23.8691 49.8623 23.7816 49.6919 23.7816 49.5214C23.6942 47.4758 23.7816 43.8959 24.656 41.6798C25.6177 39.2933 27.104 37.1624 29.115 37.1624C30.7762 37.1624 32.1751 38.6966 33.0494 40.657C33.0494 40.7422 33.1368 40.9127 33.2243 41.0832C33.3991 41.5946 33.3991 41.9355 33.574 41.9355C33.7489 41.9355 33.7489 41.5946 33.9237 41.0832C33.9237 40.9979 34.0112 40.8275 34.0112 40.7422C34.798 38.7818 36.2844 37.1624 37.9456 37.1624C39.9565 37.1624 41.88 39.2933 42.492 41.8503C43.104 44.663 42.5795 46.1972 42.9292 48.8395C43.2789 51.4818 44.0658 52.4194 44.503 52.6751C44.5904 52.7603 44.7653 52.8455 44.7653 52.7603C44.7653 52.7603 44.7653 52.6751 44.7653 52.5898C44.7653 52.1637 44.9401 51.2261 45.9019 50.7999C46.6887 50.3737 47.3882 50.5442 47.6505 50.6294H47.7379V50.5442C47.9128 49.6919 47.6505 48.8395 47.1259 48.2429C46.6013 47.561 45.727 46.9644 45.6396 46.1973C45.5521 45.2597 46.6887 44.8335 47.3008 45.4301C47.7379 45.8563 47.8254 46.6234 48.0877 48.0724C48.4374 49.4362 50.0112 49.9476 50.6232 50.0328C50.7106 50.0328 50.798 50.118 50.8855 50.118C51.3226 50.2885 51.2352 50.3737 51.3226 50.3737C51.4101 50.3737 51.4101 49.9476 51.4101 49.7771C51.4101 49.3509 51.2352 48.9248 51.2352 48.9248C53.1587 49.5214 54.7325 49.0952 55.7816 48.5838C56.3062 48.3281 56.7434 47.9019 56.7434 47.7315C56.7434 47.6462 56.1314 47.4758 55.7816 47.3905C44.7652 44.2369 42.1423 34.8611 41.7926 33.2416C41.7926 33.1564 41.7926 33.0711 41.7051 32.9859C41.7051 32.9859 41.7051 32.9859 41.6177 32.9007L41.1805 32.645H41.0931C41.0931 32.645 41.0931 32.645 41.0057 32.645C40.7434 32.8154 40.3937 32.9007 40.1314 32.9007C39.1696 32.9007 38.3827 32.1336 38.3827 31.196C38.3827 30.2584 39.1696 29.4913 40.0439 29.4913C40.1314 29.4913 40.1314 29.4913 40.2188 29.4913C40.2188 29.4913 40.2188 29.4061 40.3062 29.4061L40.3937 28.9799C40.3937 28.8946 40.3937 28.8946 40.3937 28.8946C40.3937 28.8946 40.3937 28.8946 40.3062 28.8094C36.2844 25.5705 37.0713 17.8994 37.8581 14.1491C38.1204 13.041 38.4702 11.8477 40.3937 11.0806C41.5303 10.6545 41.9674 10.7397 41.268 10.3135C40.656 9.97258 39.6068 9.54641 38.2079 9.97258C38.2079 9.97258 38.3827 9.20547 38.033 8.60883C37.9456 8.5236 37.8581 8.18266 37.6833 8.18266C37.5958 8.18266 37.5959 8.35313 37.421 8.60883C37.3336 8.69407 37.2461 8.7793 37.0713 8.86453C36.5467 9.20547 35.8472 9.63164 36.1095 11.2511C36.1095 11.2511 36.1969 11.7625 35.6724 12.0182C35.2352 12.2739 34.7106 12.0182 34.5357 11.6773C34.5357 11.6773 34.3609 11.3363 34.7106 10.6545C35.0603 9.88735 35.3226 9.80211 35.3226 9.035C35.3226 8.18266 34.6232 7.50078 34.186 6.98938C34.0986 6.90414 33.9237 6.64844 33.8363 6.64844C33.7489 6.64844 33.574 6.90414 33.4866 6.98938C33.0494 7.58602 32.35 8.18266 32.35 9.035C32.35 9.71688 32.6122 9.88735 32.962 10.6545C33.3117 11.4216 33.1368 11.6773 33.1368 11.6773C33.1368 11.6773 32.962 12.1887 32.4374 12.1034C31.5631 12.0182 31.6505 11.2511 31.6505 11.2511C31.8254 9.54641 31.2133 9.20547 30.6887 8.86453C30.5139 8.7793 30.4265 8.69407 30.339 8.60883C30.1642 8.35313 30.1642 8.18266 30.0767 8.18266C29.9893 8.18266 29.8144 8.5236 29.727 8.60883C29.3773 9.29071 29.5521 9.97258 29.5521 9.97258C28.1532 9.54641 27.104 9.97258 26.492 10.3135C25.7051 10.7397 26.2297 10.5692 27.3663 11.0806C28.8527 11.6773 29.3773 12.6149 29.6396 13.4672V13.5524C29.6396 13.5524 29.727 13.5524 29.727 13.6377C29.9893 13.7229 30.8636 14.0638 31.8254 14.6605C31.9128 14.7457 32.0002 14.8309 32.0877 14.7457C32.1751 14.7457 32.1751 14.6605 32.1751 14.5752C32.5248 13.9786 33.1368 13.6377 33.7489 13.6377C34.8855 13.6377 35.8472 14.831 35.8472 16.3652C35.8472 17.047 35.6724 17.7289 35.2352 18.2403C35.3226 18.4108 35.2352 18.496 35.1478 18.5813Z" fill="#D20A11"/>
<path d="M34.5354 16.1944C34.6228 16.1944 34.7103 16.1944 34.7103 16.1944C34.7103 16.1944 34.7103 16.2797 34.7103 16.3649C34.5354 17.0468 34.0982 18.7515 34.1857 21.3937C34.2731 24.2065 34.7977 25.8259 34.9726 26.4226C34.9726 26.5078 35.06 26.593 35.06 26.593C35.06 26.593 34.9726 26.593 34.7977 26.593C33.9234 26.4226 33.0491 26.593 32.6119 26.593C32.5245 26.593 32.437 26.593 32.437 26.593C32.437 26.593 32.437 26.5078 32.437 26.4226C32.437 24.2065 33.7485 22.4166 32.5245 19.0072C31.825 16.9615 29.4644 15.5978 26.2294 15.5978C22.9944 15.5978 20.8086 17.3025 19.3223 19.6891C17.836 22.0756 17.3114 25.9112 18.9726 27.1897C18.9726 27.1897 19.06 27.1897 19.06 27.2749C19.06 27.2749 19.06 27.2749 19.06 27.3602L18.5354 29.2353C18.5354 29.3206 18.448 29.4058 18.448 29.4058C18.3605 29.4058 18.3605 29.4058 18.1857 29.2353C17.6611 28.8944 17.1365 28.8091 16.7868 28.8091C15.4753 28.8091 14.3387 29.832 14.3387 31.1957C14.3387 32.4742 15.3879 33.5823 16.7868 33.5823C17.1365 33.5823 17.3988 33.497 17.7485 33.4118L17.9234 33.3266C17.9234 33.3266 17.9234 33.3266 18.0108 33.4118L18.6228 35.2017C18.6228 35.287 18.7103 35.3722 18.7103 35.4574C18.7103 35.4574 18.6228 35.5427 18.5354 35.5427C17.9234 35.8836 15.9999 37.5031 17.7485 43.4695V43.5547L17.6611 43.64C16.9616 44.1514 16.1747 44.5775 15.6502 44.8332C15.5627 44.9185 15.4753 44.9185 15.4753 44.9185C15.4753 44.9185 15.3879 44.748 15.3004 44.748C14.6884 43.8104 13.7267 41.85 12.7649 38.9521C11.4534 34.946 11.7157 33.7527 9.87967 32.5595C9.79224 32.4742 9.79224 32.4742 9.79224 32.4742V32.3038V29.9172C9.79224 29.832 9.79224 29.832 9.79224 29.832H9.87967C10.3168 29.7467 11.7157 29.1501 12.8523 27.2749C14.0764 25.2293 14.9507 20.9676 17.4862 17.8991C20.1092 14.6602 22.4698 13.4669 26.5791 13.6374C29.3769 13.7226 31.5627 15.1716 32.1747 15.5126C32.5245 15.9387 33.3114 16.3649 34.5354 16.1944Z" fill="#D20A11"/>
<path d="M38.2952 37.7588C38.2078 37.7588 38.2078 37.844 38.2952 37.7588L38.2078 50.203C38.2078 53.2715 38.7323 55.7433 36.634 57.0218C36.5466 57.107 36.3717 57.107 36.2843 57.1923C34.3608 58.0446 32.2624 56.8513 31.9127 54.9762C31.5629 53.1862 32.787 52.0782 33.4864 51.7372C33.4864 52.1634 33.6613 52.5896 34.011 52.9305C34.2733 53.2715 34.7105 53.5272 35.3225 53.5272C35.3225 53.5272 35.3225 53.5272 35.4099 53.5272C35.9345 53.5272 36.3717 53.3567 36.7214 53.0158C37.0711 52.6748 37.246 52.2487 37.246 51.8225V51.7372C37.246 51.3111 37.0711 50.8849 36.7214 50.6292C36.634 50.544 36.4591 50.4587 36.3717 50.3735C35.9345 50.1178 35.4099 49.9473 34.8854 49.9473C33.5739 49.9473 32.3498 50.9701 32.3498 50.9701C30.6886 52.2487 30.3389 54.1238 30.5138 55.4876C30.7761 57.107 31.6504 58.3003 32.8744 59.0674C33.9236 59.6641 34.9728 59.8345 35.8471 59.7493C36.5466 59.7493 36.8963 59.5788 37.246 59.4936C38.8198 58.9822 39.5192 57.7037 39.5192 57.7037C39.6067 58.2151 39.869 58.4708 40.1313 58.7265C40.3061 58.8969 40.6558 59.0674 40.7433 58.9822C40.8307 58.9822 40.7433 58.6412 40.8307 58.3003C40.9181 57.448 41.3553 56.9366 41.6176 56.6808C41.705 56.5956 41.7925 56.5956 41.7925 56.5104C41.7925 56.4251 41.705 56.3399 41.6176 56.2547C40.481 54.7205 41.2679 53.5272 41.2679 53.5272C43.8034 54.55 42.9291 57.0218 42.2296 58.3855C42.0548 58.7265 41.7925 58.9822 41.8799 59.0674C41.8799 59.1527 42.4045 59.2379 42.9291 58.9822C44.5028 58.3855 44.94 56.3399 44.94 56.3399C45.2897 56.4251 45.8143 56.5104 46.2515 56.5104C48.0001 56.5104 49.399 55.1466 49.399 53.4419C49.399 52.9305 49.2241 52.4191 49.0493 51.993C48.8744 51.5668 48.4373 51.3111 48.0875 51.1406C47.9127 51.1406 47.8252 51.0554 47.6504 51.0554C46.8635 51.0554 46.164 51.7372 46.164 52.5044C46.164 53.2715 46.7761 53.9533 47.6504 53.9533C47.7378 53.9533 47.9127 53.9533 48.0001 53.9533C47.9127 54.209 47.4755 54.6352 46.9509 54.7205C46.0766 54.9762 44.94 54.7205 43.8908 52.9305C42.4919 50.3735 42.4045 48.2426 42.4045 43.8104C42.1422 40.2306 39.6067 37.7588 38.2952 37.7588Z" fill="#D20A11"/>
<path d="M24.2186 53.7829C24.3061 54.3795 24.5683 56.4251 25.4427 57.5332C25.5301 57.7037 25.6175 57.7889 25.6175 57.7889C25.6175 57.8741 25.2678 57.7889 25.1804 57.7889C24.1312 57.3627 22.2951 56.3399 21.2459 53.7829C21.2459 53.7829 20.6339 54.3795 20.0219 54.6352C19.7596 54.7204 19.7596 54.7204 19.6722 54.55C19.4099 54.209 18.7979 53.1862 18.7979 52.1634C18.7979 51.9077 18.7979 51.7372 18.8853 51.8225C18.8853 51.8225 19.1476 51.9929 19.235 52.0782C19.847 52.5043 21.3334 53.2715 23.9563 53.6124C24.0438 53.6124 24.1312 53.6124 24.2186 53.6976C24.2186 53.6124 24.2186 53.6976 24.2186 53.7829Z" fill="#D20A11"/>
<path d="M26.6666 26.9341C25.6174 26.6784 24.2185 25.6556 24.1311 23.6952C24.1311 23.0133 24.306 22.4166 24.8306 21.9052C25.1803 21.5643 25.7049 21.3086 26.2295 21.3086C27.1912 21.3086 27.8907 22.0757 27.8907 23.0133C27.8907 23.9509 27.1038 24.6327 26.142 24.6327C26.0546 24.6327 25.9672 24.6327 25.8797 24.6327C25.8797 24.6327 25.9672 25.1441 26.4918 25.3998C26.4918 25.3998 27.0164 25.7408 27.7158 25.6556C28.4153 25.5703 28.9398 25.3998 28.9398 25.3998C28.9398 25.3998 28.765 25.826 28.5901 26.2522C28.3278 26.6784 28.153 26.8488 28.153 26.9341C27.9781 27.0193 27.1912 27.1045 26.6666 26.9341Z" fill="#D20A11"/>
</svg>
